\relax 
\providecommand\HyperFirstAtBeginDocument{\AtBeginDocument}
\HyperFirstAtBeginDocument{\ifx\hyper@anchor\@undefined
\global\let\oldcontentsline\contentsline
\gdef\contentsline#1#2#3#4{\oldcontentsline{#1}{#2}{#3}}
\global\let\oldnewlabel\newlabel
\gdef\newlabel#1#2{\newlabelxx{#1}#2}
\gdef\newlabelxx#1#2#3#4#5#6{\oldnewlabel{#1}{{#2}{#3}}}
\AtEndDocument{\ifx\hyper@anchor\@undefined
\let\contentsline\oldcontentsline
\let\newlabel\oldnewlabel
\fi}
\fi}
\global\let\hyper@last\relax 
\gdef\HyperFirstAtBeginDocument#1{#1}
\providecommand\HyField@AuxAddToFields[1]{}
\@writefile{toc}{\contentsline {chapter}{\numberline {1}Hierarchical Index}{1}{chapter.1}}
\@writefile{lof}{\addvspace {10\p@ }}
\@writefile{lot}{\addvspace {10\p@ }}
\@writefile{toc}{\contentsline {section}{\numberline {1.1}Ki\IeC {\'\ecircumflex }n tr\IeC {\'u}c Class}{1}{section.1.1}}
\@writefile{toc}{\contentsline {chapter}{\numberline {2}Class Index}{3}{chapter.2}}
\@writefile{lof}{\addvspace {10\p@ }}
\@writefile{lot}{\addvspace {10\p@ }}
\@writefile{toc}{\contentsline {section}{\numberline {2.1}Danh m\IeC {\d u}c c\IeC {\'a}c Class}{3}{section.2.1}}
\@writefile{toc}{\contentsline {chapter}{\numberline {3}File Index}{5}{chapter.3}}
\@writefile{lof}{\addvspace {10\p@ }}
\@writefile{lot}{\addvspace {10\p@ }}
\@writefile{toc}{\contentsline {section}{\numberline {3.1}Danh m\IeC {\d u}c File}{5}{section.3.1}}
\@writefile{toc}{\contentsline {chapter}{\numberline {4}Th\IeC {\^o}ng tin v\IeC {\`\ecircumflex } Class}{7}{chapter.4}}
\@writefile{lof}{\addvspace {10\p@ }}
\@writefile{lot}{\addvspace {10\p@ }}
\@writefile{toc}{\contentsline {section}{\numberline {4.1}Add\discretionary {-}{}{}Image Class Tham chi\IeC {\'\ecircumflex }u}{7}{section.4.1}}
\newlabel{a00001}{{4.1}{7}{Add\-Image Class Tham chiếu\relax }{section.4.1}{}}
\newlabel{a00001_a150f590fbb0659cd573f5077e497e82a}{{4.1}{8}{Các thuộc tính Static Public\relax }{section*.3}{}}
\newlabel{a00001_aabde97c4b0f6e3cab63074af1ba3c038}{{4.1}{8}{Các thuộc tính Private\relax }{section*.4}{}}
\gdef \LT@i {\LT@entry 
    {1}{78.18367pt}\LT@entry 
    {1}{380.5249pt}}
\newlabel{a00001_a1a0108274b8d8267a9f560beb03f4138}{{4.1}{9}{Các thuộc tính Private\relax }{section*.4}{}}
\@writefile{toc}{\contentsline {subsection}{\numberline {4.1.1}M\IeC {\^o} t\IeC {\h a} chi ti\IeC {\'\ecircumflex }t}{9}{subsection.4.1.1}}
\@writefile{toc}{\contentsline {subsection}{\numberline {4.1.2}Th\IeC {\^o}ng tin v\IeC {\`\ecircumflex } Constructor v\IeC {\`a} Destructor}{9}{subsection.4.1.2}}
\@writefile{toc}{\contentsline {subsubsection}{\numberline {4.1.2.1}Add\discretionary {-}{}{}Image}{9}{subsubsection.4.1.2.1}}
\newlabel{a00001_af4026e289c3bd5a570746ff20d0b7381}{{4.1.2.1}{9}{Add\-Image\relax }{subsubsection.4.1.2.1}{}}
\@writefile{toc}{\contentsline {subsection}{\numberline {4.1.3}Th\IeC {\^o}ng tin v\IeC {\`\ecircumflex } h\IeC {\`a}m th\IeC {\`a}nh vi\IeC {\^e}n}{9}{subsection.4.1.3}}
\@writefile{toc}{\contentsline {subsubsection}{\numberline {4.1.3.1}load}{9}{subsubsection.4.1.3.1}}
\newlabel{a00001_acdc9ba2d9e3d2d407760c6039b7de991}{{4.1.3.1}{9}{load\relax }{subsubsection.4.1.3.1}{}}
\@writefile{toc}{\contentsline {subsubsection}{\numberline {4.1.3.2}operate}{9}{subsubsection.4.1.3.2}}
\newlabel{a00001_af2d2d23cd5625e0391f369a9e32e8cb4}{{4.1.3.2}{9}{operate\relax }{subsubsection.4.1.3.2}{}}
\gdef \LT@ii {\LT@entry 
    {1}{78.18367pt}\LT@entry 
    {1}{380.5249pt}}
\@writefile{toc}{\contentsline {subsubsection}{\numberline {4.1.3.3}save}{10}{subsubsection.4.1.3.3}}
\newlabel{a00001_ac5cc23c08e841c757361902aa86557fa}{{4.1.3.3}{10}{save\relax }{subsubsection.4.1.3.3}{}}
\@writefile{toc}{\contentsline {subsubsection}{\numberline {4.1.3.4}type}{10}{subsubsection.4.1.3.4}}
\newlabel{a00001_aa38f9172aa79876c091d7a014dbb3166}{{4.1.3.4}{10}{type\relax }{subsubsection.4.1.3.4}{}}
\@writefile{toc}{\contentsline {section}{\numberline {4.2}Add\discretionary {-}{}{}Shape Class Tham chi\IeC {\'\ecircumflex }u}{10}{section.4.2}}
\newlabel{a00002}{{4.2}{10}{Add\-Shape Class Tham chiếu\relax }{section.4.2}{}}
\newlabel{a00002_ad603443e3e08211a0c8021343fd30bbd}{{4.2}{12}{Các thuộc tính Static Public\relax }{section*.6}{}}
\gdef \LT@iii {\LT@entry 
    {1}{78.18367pt}\LT@entry 
    {1}{380.5249pt}}
\gdef \LT@iv {\LT@entry 
    {1}{78.18367pt}\LT@entry 
    {1}{380.5249pt}}
\newlabel{a00002_a92f08a263d1f2879801cd516922f1623}{{4.2}{13}{Các thuộc tính Private\relax }{section*.7}{}}
\@writefile{toc}{\contentsline {subsection}{\numberline {4.2.1}M\IeC {\^o} t\IeC {\h a} chi ti\IeC {\'\ecircumflex }t}{13}{subsection.4.2.1}}
\@writefile{toc}{\contentsline {subsection}{\numberline {4.2.2}Th\IeC {\^o}ng tin v\IeC {\`\ecircumflex } Constructor v\IeC {\`a} Destructor}{13}{subsection.4.2.2}}
\@writefile{toc}{\contentsline {subsubsection}{\numberline {4.2.2.1}Add\discretionary {-}{}{}Shape}{13}{subsubsection.4.2.2.1}}
\newlabel{a00002_a6e9ebbe85dcb59967dec02091e1fb74e}{{4.2.2.1}{13}{Add\-Shape\relax }{subsubsection.4.2.2.1}{}}
\@writefile{toc}{\contentsline {subsection}{\numberline {4.2.3}Th\IeC {\^o}ng tin v\IeC {\`\ecircumflex } h\IeC {\`a}m th\IeC {\`a}nh vi\IeC {\^e}n}{13}{subsection.4.2.3}}
\@writefile{toc}{\contentsline {subsubsection}{\numberline {4.2.3.1}append}{13}{subsubsection.4.2.3.1}}
\newlabel{a00002_a427d55c8c3f206b34358eb100dd4c072}{{4.2.3.1}{13}{append\relax }{subsubsection.4.2.3.1}{}}
\@writefile{toc}{\contentsline {subsubsection}{\numberline {4.2.3.2}load}{13}{subsubsection.4.2.3.2}}
\newlabel{a00002_a830dd1f9d574fccb51ab62182a7f7faf}{{4.2.3.2}{13}{load\relax }{subsubsection.4.2.3.2}{}}
\gdef \LT@v {\LT@entry 
    {1}{78.18367pt}\LT@entry 
    {1}{380.5249pt}}
\gdef \LT@vi {\LT@entry 
    {1}{78.18367pt}\LT@entry 
    {1}{380.5249pt}}
\@writefile{toc}{\contentsline {subsubsection}{\numberline {4.2.3.3}operate}{14}{subsubsection.4.2.3.3}}
\newlabel{a00002_a021cb39ddbb6f3cfa29baba010ed44df}{{4.2.3.3}{14}{operate\relax }{subsubsection.4.2.3.3}{}}
\@writefile{toc}{\contentsline {subsubsection}{\numberline {4.2.3.4}save}{14}{subsubsection.4.2.3.4}}
\newlabel{a00002_a1b414ea8d2551b3665cb85b5ae46b3c2}{{4.2.3.4}{14}{save\relax }{subsubsection.4.2.3.4}{}}
\@writefile{toc}{\contentsline {subsubsection}{\numberline {4.2.3.5}type}{14}{subsubsection.4.2.3.5}}
\newlabel{a00002_a45dbfe2726340816b19a5865b8860f51}{{4.2.3.5}{14}{type\relax }{subsubsection.4.2.3.5}{}}
\@writefile{toc}{\contentsline {section}{\numberline {4.3}Canvas Class Tham chi\IeC {\'\ecircumflex }u}{15}{section.4.3}}
\newlabel{a00003}{{4.3}{15}{Canvas Class Tham chiếu\relax }{section.4.3}{}}
\newlabel{a00003_a92e54d2c98cf283bfbd2a652f937295f}{{4.3}{17}{Public Slots\relax }{section*.9}{}}
\newlabel{a00003_a5987f03d756df34a50430e92c8334494}{{4.3}{17}{Public Slots\relax }{section*.9}{}}
\newlabel{a00003_aa881268e84f701dc8f0b7d7ee8ae813f}{{4.3}{17}{Public Slots\relax }{section*.9}{}}
\newlabel{a00003_ae421e57f5edb0c8d24e723d6f6234df5}{{4.3}{17}{Public Slots\relax }{section*.9}{}}
\newlabel{a00003_a69b71417265f553770705e0015b152d5}{{4.3}{17}{Public Slots\relax }{section*.9}{}}
\newlabel{a00003_a70d5007fc00814ad983a93a485d100e5}{{4.3}{17}{Signals\relax }{section*.10}{}}
\newlabel{a00003_a714a6ca386f0524812d428cecd042a5e}{{4.3}{17}{Các hàm thành viên Public\relax }{section*.11}{}}
\newlabel{a00003_a965f58c99fff473aabcf8178e73f2430}{{4.3}{17}{Các hàm thành viên Public\relax }{section*.11}{}}
\newlabel{a00003_a9441e952f837fb3adeee7e987c65f616}{{4.3}{17}{Các hàm thành viên Public\relax }{section*.11}{}}
\newlabel{a00003_a53b5808d4e80c515dc0b64ff498f1353}{{4.3}{17}{Các hàm thành viên Public\relax }{section*.11}{}}
\newlabel{a00003_a692e9c01afef602572f6a5c9f0f6431e}{{4.3}{17}{Các hàm thành viên Public\relax }{section*.11}{}}
\newlabel{a00003_a91185d098f27d73d9e39ccbb034b740c}{{4.3}{17}{Các hàm thành viên Public\relax }{section*.11}{}}
\newlabel{a00003_a5e9d752c0107cf366dd2c57134252182}{{4.3}{17}{Các hàm thành viên Public\relax }{section*.11}{}}
\newlabel{a00003_a4f11c5119649920489fd6d12f103d820}{{4.3}{17}{Các hàm thành viên Public\relax }{section*.11}{}}
\newlabel{a00003_a3b3e9a6cdde99eeac7f00059b9f0aae2}{{4.3}{17}{Các hàm thành viên Public\relax }{section*.11}{}}
\newlabel{a00003_a8a19ee5a40839780be06c5740f55601f}{{4.3}{17}{Các hàm thành viên Public\relax }{section*.11}{}}
\newlabel{a00003_a07292af44bbade653fe42deccabbcb42}{{4.3}{17}{Các hàm Static Public\relax }{section*.12}{}}
\newlabel{a00003_a83e041271f6882d8232af04b821ee2a9}{{4.3}{17}{Các hàm Static Public\relax }{section*.12}{}}
\newlabel{a00003_a7d4215b6523f4bfee3b09d05c1608b32}{{4.3}{17}{Các thuộc tính Static Public\relax }{section*.13}{}}
\newlabel{a00003_a67dbba80855f3b4fb95c26d5012f7ccc}{{4.3}{17}{Các hàm thành viên Protected\relax }{section*.14}{}}
\newlabel{a00003_ac766a4e369f781943df021b80e5922c4}{{4.3}{17}{Các hàm thành viên Protected\relax }{section*.14}{}}
\newlabel{a00003_ae9f5a1c5981b802814aa5b189faba710}{{4.3}{17}{Các hàm thành viên Protected\relax }{section*.14}{}}
\newlabel{a00003_a0fa87c1ae8fcab07ae22d6c0e63b7148}{{4.3}{17}{Các hàm thành viên Protected\relax }{section*.14}{}}
\newlabel{a00003_a6465154effd64600fc8eb6eab5fb93e7}{{4.3}{17}{Private Slots\relax }{section*.15}{}}
\gdef \LT@vii {\LT@entry 
    {1}{78.18367pt}\LT@entry 
    {1}{380.5249pt}}
\newlabel{a00003_a5aa3db160aab113bee9f47be3438ad22}{{4.3}{18}{Các hàm thành viên Private\relax }{section*.16}{}}
\newlabel{a00003_a1747477bce0693f0fe3c6b1620aee7dd}{{4.3}{18}{Các hàm thành viên Private\relax }{section*.16}{}}
\newlabel{a00003_a56b7d070885845c3e2b8ee00a839a848}{{4.3}{18}{Các thuộc tính Private\relax }{section*.17}{}}
\newlabel{a00003_a6976981e6d137c937ef96f44d3af9d1a}{{4.3}{18}{Các thuộc tính Private\relax }{section*.17}{}}
\newlabel{a00003_ab86fd55af14d189a19980a6bea32056c}{{4.3}{18}{Các thuộc tính Private\relax }{section*.17}{}}
\newlabel{a00003_a728514411da8bcd04f53c0609fac299f}{{4.3}{18}{Các thuộc tính Private\relax }{section*.17}{}}
\newlabel{a00003_a574d5f7ca8928142d45c1831d4684b9f}{{4.3}{18}{Các thuộc tính Private\relax }{section*.17}{}}
\newlabel{a00003_af42008cbd585845dc3490e87bc23a956}{{4.3}{18}{Các thuộc tính Private\relax }{section*.17}{}}
\newlabel{a00003_a9c52a5c3dfb6e015691ca2f46204f114}{{4.3}{18}{Các thuộc tính Private\relax }{section*.17}{}}
\newlabel{a00003_af9a3a2b2044a4ecb5dc5d087832a2c43}{{4.3}{18}{Các thuộc tính Private\relax }{section*.17}{}}
\newlabel{a00003_a59a3d000c41d734c9f3d0ed5e3a8417b}{{4.3}{18}{Các thuộc tính Private\relax }{section*.17}{}}
\newlabel{a00003_ad7a2348e0470c54f34a95501f6446914}{{4.3}{18}{Các thuộc tính Private\relax }{section*.17}{}}
\newlabel{a00003_a763942db6c6aa682df378c820faca02e}{{4.3}{18}{Các thuộc tính Private\relax }{section*.17}{}}
\newlabel{a00003_a65590d772a21ad8b3fcb7bd950c27f4d}{{4.3}{18}{Các thuộc tính Private\relax }{section*.17}{}}
\newlabel{a00003_a3c23c879384f8ab0e048f0a6e58c6960}{{4.3}{18}{Các thuộc tính Private\relax }{section*.17}{}}
\@writefile{toc}{\contentsline {subsection}{\numberline {4.3.1}M\IeC {\^o} t\IeC {\h a} chi ti\IeC {\'\ecircumflex }t}{18}{subsection.4.3.1}}
\@writefile{toc}{\contentsline {subsection}{\numberline {4.3.2}Th\IeC {\^o}ng tin v\IeC {\`\ecircumflex } Constructor v\IeC {\`a} Destructor}{18}{subsection.4.3.2}}
\@writefile{toc}{\contentsline {subsubsection}{\numberline {4.3.2.1}Canvas}{18}{subsubsection.4.3.2.1}}
\newlabel{a00003_a015f5fb75c2c4cf6946c0758b7bf6ac4}{{4.3.2.1}{18}{Canvas\relax }{subsubsection.4.3.2.1}{}}
\@writefile{toc}{\contentsline {subsubsection}{\numberline {4.3.2.2}$\sim $\discretionary {-}{}{}Canvas}{18}{subsubsection.4.3.2.2}}
\newlabel{a00003_a237c4549ad2e27c729cd1f71e89f0fd9}{{4.3.2.2}{18}{$\sim $\-Canvas\relax }{subsubsection.4.3.2.2}{}}
\@writefile{toc}{\contentsline {subsection}{\numberline {4.3.3}Th\IeC {\^o}ng tin v\IeC {\`\ecircumflex } h\IeC {\`a}m th\IeC {\`a}nh vi\IeC {\^e}n}{18}{subsection.4.3.3}}
\@writefile{toc}{\contentsline {subsubsection}{\numberline {4.3.3.1}repaint\discretionary {-}{}{}Rect}{18}{subsubsection.4.3.3.1}}
\newlabel{a00003_a140e5d39eea0653a6eccdf79ba72a0e4}{{4.3.3.1}{18}{repaint\-Rect\relax }{subsubsection.4.3.3.1}{}}
\gdef \LT@viii {\LT@entry 
    {1}{78.18367pt}\LT@entry 
    {1}{380.5249pt}}
\gdef \LT@ix {\LT@entry 
    {1}{78.18367pt}\LT@entry 
    {1}{380.5249pt}}
\gdef \LT@x {\LT@entry 
    {1}{78.18367pt}\LT@entry 
    {1}{380.5249pt}}
\gdef \LT@xi {\LT@entry 
    {1}{78.18367pt}\LT@entry 
    {1}{380.5249pt}}
\@writefile{toc}{\contentsline {subsubsection}{\numberline {4.3.3.2}set\discretionary {-}{}{}Brush}{19}{subsubsection.4.3.3.2}}
\newlabel{a00003_ac9c7ec393a90e3a8e55922c555b87ea1}{{4.3.3.2}{19}{set\-Brush\relax }{subsubsection.4.3.3.2}{}}
\@writefile{toc}{\contentsline {subsubsection}{\numberline {4.3.3.3}set\discretionary {-}{}{}Erase\discretionary {-}{}{}Radius}{19}{subsubsection.4.3.3.3}}
\newlabel{a00003_a79b4f040a679ba6944df43f9441a5dc6}{{4.3.3.3}{19}{set\-Erase\-Radius\relax }{subsubsection.4.3.3.3}{}}
\@writefile{toc}{\contentsline {subsubsection}{\numberline {4.3.3.4}set\discretionary {-}{}{}Pen}{19}{subsubsection.4.3.3.4}}
\newlabel{a00003_a1adec9be87ef7de730771335aeeb1727}{{4.3.3.4}{19}{set\-Pen\relax }{subsubsection.4.3.3.4}{}}
\@writefile{toc}{\contentsline {subsubsection}{\numberline {4.3.3.5}set\discretionary {-}{}{}Zoom\discretionary {-}{}{}Factor}{19}{subsubsection.4.3.3.5}}
\newlabel{a00003_a98fbf70dce5731d631fc302b4ceebdf3}{{4.3.3.5}{19}{set\-Zoom\-Factor\relax }{subsubsection.4.3.3.5}{}}
\@writefile{toc}{\contentsline {section}{\numberline {4.4}Change\discretionary {-}{}{}Shape Class Tham chi\IeC {\'\ecircumflex }u}{20}{section.4.4}}
\newlabel{a00004}{{4.4}{20}{Change\-Shape Class Tham chiếu\relax }{section.4.4}{}}
\newlabel{a00004_a55b66a9d58c0ccc499346bb2d5dff226}{{4.4}{22}{Các thuộc tính Static Public\relax }{section*.20}{}}
\newlabel{a00004_a23f47f6164dcc5fd82d8372a91215738}{{4.4}{22}{Các kiểu Private\relax }{section*.21}{}}
\newlabel{a00004_a500724a3f0a97370dcff1668a0eabb81}{{4.4}{22}{Các kiểu Private\relax }{section*.21}{}}
\newlabel{a00004_aceed33453cbec873bb29f1202bc234e8}{{4.4}{22}{Các thuộc tính Private\relax }{section*.22}{}}
\@writefile{toc}{\contentsline {subsection}{\numberline {4.4.1}M\IeC {\^o} t\IeC {\h a} chi ti\IeC {\'\ecircumflex }t}{22}{subsection.4.4.1}}
\gdef \LT@xii {\LT@entry 
    {1}{78.18367pt}\LT@entry 
    {1}{380.5249pt}}
\@writefile{toc}{\contentsline {subsection}{\numberline {4.4.2}Th\IeC {\^o}ng tin v\IeC {\`\ecircumflex } Constructor v\IeC {\`a} Destructor}{23}{subsection.4.4.2}}
\@writefile{toc}{\contentsline {subsubsection}{\numberline {4.4.2.1}Change\discretionary {-}{}{}Shape}{23}{subsubsection.4.4.2.1}}
\newlabel{a00004_af9181ffcd212ae48278205bcd536f4ad}{{4.4.2.1}{23}{Change\-Shape\relax }{subsubsection.4.4.2.1}{}}
\@writefile{toc}{\contentsline {subsection}{\numberline {4.4.3}Th\IeC {\^o}ng tin v\IeC {\`\ecircumflex } h\IeC {\`a}m th\IeC {\`a}nh vi\IeC {\^e}n}{23}{subsection.4.4.3}}
\@writefile{toc}{\contentsline {subsubsection}{\numberline {4.4.3.1}get\discretionary {-}{}{}Add\discretionary {-}{}{}Shape}{23}{subsubsection.4.4.3.1}}
\newlabel{a00004_a2fd5411681b0d8a07c577e9155b1dfdd}{{4.4.3.1}{23}{get\-Add\-Shape\relax }{subsubsection.4.4.3.1}{}}
\@writefile{toc}{\contentsline {subsubsection}{\numberline {4.4.3.2}load}{23}{subsubsection.4.4.3.2}}
\newlabel{a00004_a6b47c9215bf0e947bca5d375728cfbc8}{{4.4.3.2}{23}{load\relax }{subsubsection.4.4.3.2}{}}
\@writefile{toc}{\contentsline {subsubsection}{\numberline {4.4.3.3}operate}{23}{subsubsection.4.4.3.3}}
\newlabel{a00004_ab6f201d6faf1e9eb2e808555554e15d8}{{4.4.3.3}{23}{operate\relax }{subsubsection.4.4.3.3}{}}
\gdef \LT@xiii {\LT@entry 
    {1}{78.18367pt}\LT@entry 
    {1}{380.5249pt}}
\gdef \LT@xiv {\LT@entry 
    {1}{78.18367pt}\LT@entry 
    {1}{380.5249pt}}
\gdef \LT@xv {\LT@entry 
    {1}{78.18367pt}\LT@entry 
    {1}{380.5249pt}}
\gdef \LT@xvi {\LT@entry 
    {1}{78.18367pt}\LT@entry 
    {1}{380.5249pt}}
\@writefile{toc}{\contentsline {subsubsection}{\numberline {4.4.3.4}save}{24}{subsubsection.4.4.3.4}}
\newlabel{a00004_ab8622cdc3dd40fdf2356d0dad4285ce1}{{4.4.3.4}{24}{save\relax }{subsubsection.4.4.3.4}{}}
\@writefile{toc}{\contentsline {subsubsection}{\numberline {4.4.3.5}set\discretionary {-}{}{}Changed\discretionary {-}{}{}Part}{24}{subsubsection.4.4.3.5}}
\newlabel{a00004_aaa094ed8fc37c39ebfffb9ea4db2c34e}{{4.4.3.5}{24}{set\-Changed\-Part\relax }{subsubsection.4.4.3.5}{}}
\@writefile{toc}{\contentsline {subsubsection}{\numberline {4.4.3.6}set\discretionary {-}{}{}Last\discretionary {-}{}{}Top\discretionary {-}{}{}Left}{24}{subsubsection.4.4.3.6}}
\newlabel{a00004_aca3cc137c14085100c59843e63f12379}{{4.4.3.6}{24}{set\-Last\-Top\-Left\relax }{subsubsection.4.4.3.6}{}}
\@writefile{toc}{\contentsline {subsubsection}{\numberline {4.4.3.7}type}{25}{subsubsection.4.4.3.7}}
\newlabel{a00004_a7627093d8746051bce9679a718d4220f}{{4.4.3.7}{25}{type\relax }{subsubsection.4.4.3.7}{}}
\@writefile{toc}{\contentsline {subsection}{\numberline {4.4.4}Th\IeC {\^o}ng tin v\IeC {\`\ecircumflex } Member Data}{25}{subsection.4.4.4}}
\@writefile{toc}{\contentsline {subsubsection}{\numberline {4.4.4.1}changed\discretionary {-}{}{}Part}{25}{subsubsection.4.4.4.1}}
\newlabel{a00004_a7561bcc4f3879d6fe0050a4689dcc552}{{4.4.4.1}{25}{changed\-Part\relax }{subsubsection.4.4.4.1}{}}
\@writefile{toc}{\contentsline {subsubsection}{\numberline {4.4.4.2}last\discretionary {-}{}{}Top\discretionary {-}{}{}Left}{25}{subsubsection.4.4.4.2}}
\newlabel{a00004_af9eaf77d4e79e83d0dabf0cce31cb43c}{{4.4.4.2}{25}{last\-Top\-Left\relax }{subsubsection.4.4.4.2}{}}
\@writefile{toc}{\contentsline {section}{\numberline {4.5}Color\discretionary {-}{}{}Picker Class Tham chi\IeC {\'\ecircumflex }u}{25}{section.4.5}}
\newlabel{a00005}{{4.5}{25}{Color\-Picker Class Tham chiếu\relax }{section.4.5}{}}
\newlabel{a00005_a0dccd01184c5548db4e96b28625c72bb}{{4.5}{28}{Signals\relax }{section*.25}{}}
\newlabel{a00005_af5a1e05e44030931cead127ea79480e9}{{4.5}{28}{Signals\relax }{section*.25}{}}
\newlabel{a00005_ab81e66df3c61abe0dcf019b7a8aa6607}{{4.5}{28}{Signals\relax }{section*.25}{}}
\newlabel{a00005_ad431a9537f9fbb350f321abbe92c5f1a}{{4.5}{28}{Các hàm thành viên Public\relax }{section*.26}{}}
\newlabel{a00005_aeb538d5706b8d130c50d93eca3770bff}{{4.5}{28}{Các hàm thành viên Protected\relax }{section*.28}{}}
\newlabel{a00005_aad13d5f7d0b1a71072cfb8c706bb6a15}{{4.5}{28}{Các kiểu Private\relax }{section*.29}{}}
\gdef \LT@xvii {\LT@entry 
    {1}{78.18367pt}\LT@entry 
    {1}{380.5249pt}}
\newlabel{a00005_a7d7ad0169101a8877df63142711d154f}{{4.5}{29}{Các thuộc tính Private\relax }{section*.32}{}}
\newlabel{a00005_a6666d8775d79fc74ed1dafc56f7582cd}{{4.5}{29}{Các thuộc tính Private\relax }{section*.32}{}}
\newlabel{a00005_a34ccba3b00583b76546d2eeb4d2dd3ed}{{4.5}{29}{Các thuộc tính Private\relax }{section*.32}{}}
\newlabel{a00005_a09a212b9da76ee63d655923a061486a9}{{4.5}{29}{Các thuộc tính Private\relax }{section*.32}{}}
\newlabel{a00005_a739611e50309f93a1b0094e96b39d265}{{4.5}{29}{Các thuộc tính Static Private\relax }{section*.33}{}}
\newlabel{a00005_a680a62690df38e63d543b0784817c26b}{{4.5}{29}{Các thuộc tính Static Private\relax }{section*.33}{}}
\@writefile{toc}{\contentsline {subsection}{\numberline {4.5.1}M\IeC {\^o} t\IeC {\h a} chi ti\IeC {\'\ecircumflex }t}{29}{subsection.4.5.1}}
\@writefile{toc}{\contentsline {subsection}{\numberline {4.5.2}Th\IeC {\^o}ng tin v\IeC {\`\ecircumflex } Constructor v\IeC {\`a} Destructor}{29}{subsection.4.5.2}}
\@writefile{toc}{\contentsline {subsubsection}{\numberline {4.5.2.1}Color\discretionary {-}{}{}Picker}{29}{subsubsection.4.5.2.1}}
\newlabel{a00005_ac7ccd368b621703353772390702d6709}{{4.5.2.1}{29}{Color\-Picker\relax }{subsubsection.4.5.2.1}{}}
\gdef \LT@xviii {\LT@entry 
    {1}{78.18367pt}\LT@entry 
    {1}{380.5249pt}}
\gdef \LT@xix {\LT@entry 
    {1}{78.18367pt}\LT@entry 
    {1}{380.5249pt}}
\@writefile{toc}{\contentsline {subsection}{\numberline {4.5.3}Th\IeC {\^o}ng tin v\IeC {\`\ecircumflex } h\IeC {\`a}m th\IeC {\`a}nh vi\IeC {\^e}n}{30}{subsection.4.5.3}}
\@writefile{toc}{\contentsline {subsubsection}{\numberline {4.5.3.1}color\discretionary {-}{}{}At}{30}{subsubsection.4.5.3.1}}
\newlabel{a00005_afc8c6c46ea15eb4a4a8f6e8c3aa0006b}{{4.5.3.1}{30}{color\-At\relax }{subsubsection.4.5.3.1}{}}
\@writefile{toc}{\contentsline {subsubsection}{\numberline {4.5.3.2}init\discretionary {-}{}{}Contex\discretionary {-}{}{}Menu}{30}{subsubsection.4.5.3.2}}
\newlabel{a00005_aa3920d39d1203d862fb7b90f96505e15}{{4.5.3.2}{30}{init\-Contex\-Menu\relax }{subsubsection.4.5.3.2}{}}
\@writefile{toc}{\contentsline {subsubsection}{\numberline {4.5.3.3}init\discretionary {-}{}{}Palette}{30}{subsubsection.4.5.3.3}}
\newlabel{a00005_ac813562e4b6e6906609b36e8081d4e0e}{{4.5.3.3}{30}{init\-Palette\relax }{subsubsection.4.5.3.3}{}}
\@writefile{toc}{\contentsline {subsubsection}{\numberline {4.5.3.4}mouse\discretionary {-}{}{}Move\discretionary {-}{}{}Event}{30}{subsubsection.4.5.3.4}}
\newlabel{a00005_a1c4596b6a704dcc3b6f317941f9d73a5}{{4.5.3.4}{30}{mouse\-Move\-Event\relax }{subsubsection.4.5.3.4}{}}
\gdef \LT@xx {\LT@entry 
    {1}{78.18367pt}\LT@entry 
    {1}{380.5249pt}}
\gdef \LT@xxi {\LT@entry 
    {1}{78.18367pt}\LT@entry 
    {1}{380.5249pt}}
\gdef \LT@xxii {\LT@entry 
    {1}{78.18367pt}\LT@entry 
    {1}{380.5249pt}}
\@writefile{toc}{\contentsline {subsubsection}{\numberline {4.5.3.5}mouse\discretionary {-}{}{}Press\discretionary {-}{}{}Event}{31}{subsubsection.4.5.3.5}}
\newlabel{a00005_a29d76d3673f43b73d27847e026fb73d7}{{4.5.3.5}{31}{mouse\-Press\-Event\relax }{subsubsection.4.5.3.5}{}}
\@writefile{toc}{\contentsline {subsubsection}{\numberline {4.5.3.6}palette\discretionary {-}{}{}Action\discretionary {-}{}{}\_\discretionary {-}{}{}triggered}{31}{subsubsection.4.5.3.6}}
\newlabel{a00005_ad950b547b5665d89849cad7c97e10866}{{4.5.3.6}{31}{palette\-Action\-\_\-triggered\relax }{subsubsection.4.5.3.6}{}}
\@writefile{toc}{\contentsline {subsubsection}{\numberline {4.5.3.7}set\discretionary {-}{}{}Palette}{31}{subsubsection.4.5.3.7}}
\newlabel{a00005_ab52a8817ac68e7919e66bd97708abe55}{{4.5.3.7}{31}{set\-Palette\relax }{subsubsection.4.5.3.7}{}}
\@writefile{toc}{\contentsline {section}{\numberline {4.6}Erase Class Tham chi\IeC {\'\ecircumflex }u}{32}{section.4.6}}
\newlabel{a00006}{{4.6}{32}{Erase Class Tham chiếu\relax }{section.4.6}{}}
\newlabel{a00006_aa5a3ad6b8b54579f1ac4b818191ef2b5}{{4.6}{33}{Các hàm thành viên Public\relax }{section*.34}{}}
\newlabel{a00006_a44331bda4342ece6f25a297860d026fa}{{4.6}{33}{Các thuộc tính Static Public\relax }{section*.35}{}}
\newlabel{a00006_a2646664d1e77054ad0f2a44ebeb28d4c}{{4.6}{33}{Các thuộc tính Private\relax }{section*.36}{}}
\gdef \LT@xxiii {\LT@entry 
    {1}{78.18367pt}\LT@entry 
    {1}{380.5249pt}}
\gdef \LT@xxiv {\LT@entry 
    {1}{78.18367pt}\LT@entry 
    {1}{380.5249pt}}
\newlabel{a00006_a4cf5a4e1f7830deb016e9339680b8cb2}{{4.6}{34}{Các thuộc tính Private\relax }{section*.36}{}}
\@writefile{toc}{\contentsline {subsection}{\numberline {4.6.1}M\IeC {\^o} t\IeC {\h a} chi ti\IeC {\'\ecircumflex }t}{34}{subsection.4.6.1}}
\@writefile{toc}{\contentsline {subsection}{\numberline {4.6.2}Th\IeC {\^o}ng tin v\IeC {\`\ecircumflex } Constructor v\IeC {\`a} Destructor}{34}{subsection.4.6.2}}
\@writefile{toc}{\contentsline {subsubsection}{\numberline {4.6.2.1}Erase}{34}{subsubsection.4.6.2.1}}
\newlabel{a00006_a0c4bb29df7b70d99712245cb7976b6d5}{{4.6.2.1}{34}{Erase\relax }{subsubsection.4.6.2.1}{}}
\@writefile{toc}{\contentsline {subsection}{\numberline {4.6.3}Th\IeC {\^o}ng tin v\IeC {\`\ecircumflex } h\IeC {\`a}m th\IeC {\`a}nh vi\IeC {\^e}n}{34}{subsection.4.6.3}}
\@writefile{toc}{\contentsline {subsubsection}{\numberline {4.6.3.1}load}{34}{subsubsection.4.6.3.1}}
\newlabel{a00006_ae7951e1ee03ff0453aa875f36b11cee8}{{4.6.3.1}{34}{load\relax }{subsubsection.4.6.3.1}{}}
\@writefile{toc}{\contentsline {subsubsection}{\numberline {4.6.3.2}save}{34}{subsubsection.4.6.3.2}}
\newlabel{a00006_ae0994bbc0a12403d5e60760eac8cd981}{{4.6.3.2}{34}{save\relax }{subsubsection.4.6.3.2}{}}
\@writefile{toc}{\contentsline {subsubsection}{\numberline {4.6.3.3}type}{35}{subsubsection.4.6.3.3}}
\newlabel{a00006_a269a4fafbd5d02c30fec7d0acda4bf7f}{{4.6.3.3}{35}{type\relax }{subsubsection.4.6.3.3}{}}
\@writefile{toc}{\contentsline {section}{\numberline {4.7}Fill Class Tham chi\IeC {\'\ecircumflex }u}{35}{section.4.7}}
\newlabel{a00007}{{4.7}{35}{Fill Class Tham chiếu\relax }{section.4.7}{}}
\newlabel{a00007_ac2d468bd40e4b1d4ac171c54fe310bf8}{{4.7}{37}{Các thuộc tính Static Public\relax }{section*.38}{}}
\newlabel{a00007_afc41a408ef10eb5626421e1339d2a5c6}{{4.7}{37}{Các thuộc tính Private\relax }{section*.39}{}}
\gdef \LT@xxv {\LT@entry 
    {1}{78.18367pt}\LT@entry 
    {1}{380.5249pt}}
\gdef \LT@xxvi {\LT@entry 
    {1}{78.18367pt}\LT@entry 
    {1}{380.5249pt}}
\@writefile{toc}{\contentsline {subsection}{\numberline {4.7.1}M\IeC {\^o} t\IeC {\h a} chi ti\IeC {\'\ecircumflex }t}{38}{subsection.4.7.1}}
\@writefile{toc}{\contentsline {subsection}{\numberline {4.7.2}Th\IeC {\^o}ng tin v\IeC {\`\ecircumflex } Constructor v\IeC {\`a} Destructor}{38}{subsection.4.7.2}}
\@writefile{toc}{\contentsline {subsubsection}{\numberline {4.7.2.1}Fill}{38}{subsubsection.4.7.2.1}}
\newlabel{a00007_a1886806abf4af5e012ba285739a7fdfc}{{4.7.2.1}{38}{Fill\relax }{subsubsection.4.7.2.1}{}}
\@writefile{toc}{\contentsline {subsection}{\numberline {4.7.3}Th\IeC {\^o}ng tin v\IeC {\`\ecircumflex } h\IeC {\`a}m th\IeC {\`a}nh vi\IeC {\^e}n}{38}{subsection.4.7.3}}
\@writefile{toc}{\contentsline {subsubsection}{\numberline {4.7.3.1}load}{38}{subsubsection.4.7.3.1}}
\newlabel{a00007_ab651d5a97404ab79818e02b87a3ecfd8}{{4.7.3.1}{38}{load\relax }{subsubsection.4.7.3.1}{}}
\@writefile{toc}{\contentsline {subsubsection}{\numberline {4.7.3.2}operate}{38}{subsubsection.4.7.3.2}}
\newlabel{a00007_ae2c8fc0c3f361c2265ae9c80a856f432}{{4.7.3.2}{38}{operate\relax }{subsubsection.4.7.3.2}{}}
\gdef \LT@xxvii {\LT@entry 
    {1}{78.18367pt}\LT@entry 
    {1}{380.5249pt}}
\@writefile{toc}{\contentsline {subsubsection}{\numberline {4.7.3.3}save}{39}{subsubsection.4.7.3.3}}
\newlabel{a00007_ac028d4b9a82ad0404f0639730b59a845}{{4.7.3.3}{39}{save\relax }{subsubsection.4.7.3.3}{}}
\@writefile{toc}{\contentsline {subsubsection}{\numberline {4.7.3.4}type}{39}{subsubsection.4.7.3.4}}
\newlabel{a00007_abc3fa85f065f401636224eb28c718cb5}{{4.7.3.4}{39}{type\relax }{subsubsection.4.7.3.4}{}}
\@writefile{toc}{\contentsline {section}{\numberline {4.8}Main\discretionary {-}{}{}Window\discretionary {-}{}{}:\discretionary {-}{}{}:Large\discretionary {-}{}{}Icon\discretionary {-}{}{}Width\discretionary {-}{}{}Style Class Tham chi\IeC {\'\ecircumflex }u}{40}{section.4.8}}
\newlabel{a00008}{{4.8}{40}{Main\-Window\-:\-:Large\-Icon\-Width\-Style Class Tham chiếu\relax }{section.4.8}{}}
\newlabel{a00008_a18571d530a3a7d945a2b5edc5fc580d2}{{4.8}{40}{Các hàm thành viên Public\relax }{section*.40}{}}
\@writefile{toc}{\contentsline {subsection}{\numberline {4.8.1}M\IeC {\^o} t\IeC {\h a} chi ti\IeC {\'\ecircumflex }t}{41}{subsection.4.8.1}}
\@writefile{toc}{\contentsline {section}{\numberline {4.9}Main\discretionary {-}{}{}Window Class Tham chi\IeC {\'\ecircumflex }u}{42}{section.4.9}}
\newlabel{a00009}{{4.9}{42}{Main\-Window Class Tham chiếu\relax }{section.4.9}{}}
\newlabel{a00009_a467dd5d04defd72dc200a6441a90d733}{{4.9}{43}{Các hàm thành viên Public\relax }{section*.42}{}}
\newlabel{a00009_a111c70f4d669b26c2f34be33b3d1bdd6}{{4.9}{44}{Các hàm thành viên Public\relax }{section*.42}{}}
\newlabel{a00009_a05fb9d72c044aa3bb7d187b994704e2f}{{4.9}{44}{Các hàm thành viên Protected\relax }{section*.43}{}}
\newlabel{a00009_aed8d4c16aaa87ae02a2de2edd5fc91c7}{{4.9}{44}{Private Slots\relax }{section*.45}{}}
\newlabel{a00009_a48ed0a16f674e38e0e2a24274852a9af}{{4.9}{44}{Private Slots\relax }{section*.45}{}}
\newlabel{a00009_adcfbfbb1097e90daa7b15d7cfe266f13}{{4.9}{44}{Private Slots\relax }{section*.45}{}}
\newlabel{a00009_a32b6b6775775d09d897b9221fa601ee7}{{4.9}{44}{Private Slots\relax }{section*.45}{}}
\newlabel{a00009_a935316315edb9b7af42657da20be0e54}{{4.9}{44}{Private Slots\relax }{section*.45}{}}
\newlabel{a00009_a2698074c141a88308404d2b1093b554d}{{4.9}{44}{Private Slots\relax }{section*.45}{}}
\newlabel{a00009_a73be2df93057d846aa541dffb00e7144}{{4.9}{44}{Private Slots\relax }{section*.45}{}}
\newlabel{a00009_a9269d4f4d0c0355f8af10bd0fd79efe2}{{4.9}{44}{Private Slots\relax }{section*.45}{}}
\newlabel{a00009_abbab7cd8683132f28cf976d069c7c448}{{4.9}{44}{Private Slots\relax }{section*.45}{}}
\newlabel{a00009_a386390413f5b36190ba30ab8d4c653d0}{{4.9}{44}{Private Slots\relax }{section*.45}{}}
\newlabel{a00009_ac4c3825bb69d6fd80822e49197363af6}{{4.9}{44}{Private Slots\relax }{section*.45}{}}
\newlabel{a00009_aeca4a378619fd33abb9bbd0e8afc54c4}{{4.9}{44}{Private Slots\relax }{section*.45}{}}
\newlabel{a00009_a740341ca3a5f3aac94d3d4739e8780ef}{{4.9}{44}{Private Slots\relax }{section*.45}{}}
\newlabel{a00009_abb4e57dbdec7f3cafe7c7489b45a9403}{{4.9}{44}{Private Slots\relax }{section*.45}{}}
\newlabel{a00009_aeacd20f7856671703b9f4d5f3ed22816}{{4.9}{44}{Private Slots\relax }{section*.45}{}}
\newlabel{a00009_a89337a0ae812edaae86636cd984f4fa6}{{4.9}{44}{Private Slots\relax }{section*.45}{}}
\newlabel{a00009_a23fe800a2a8a89e0a970523379ec9742}{{4.9}{44}{Private Slots\relax }{section*.45}{}}
\newlabel{a00009_a22563b69bbc711e70c8a568a9f453c59}{{4.9}{44}{Private Slots\relax }{section*.45}{}}
\newlabel{a00009_a26204d0da15ff8fae46e7c41159f161f}{{4.9}{44}{Private Slots\relax }{section*.45}{}}
\newlabel{a00009_ac76431058c99a78cca019801d3f1ffbc}{{4.9}{44}{Private Slots\relax }{section*.45}{}}
\newlabel{a00009_a4d562cfe125e9523353bcd019468fa98}{{4.9}{44}{Private Slots\relax }{section*.45}{}}
\newlabel{a00009_a5e94bd96a786540e8c0866169fafb1d1}{{4.9}{44}{Private Slots\relax }{section*.45}{}}
\newlabel{a00009_a7f3715072b1e2290807dc58c636028a6}{{4.9}{44}{Private Slots\relax }{section*.45}{}}
\newlabel{a00009_a07f38d375970ced0ad59d211ad25db3e}{{4.9}{44}{Private Slots\relax }{section*.45}{}}
\newlabel{a00009_ab423c7a52975ee6cc196ded66dffe5f8}{{4.9}{44}{Private Slots\relax }{section*.45}{}}
\newlabel{a00009_a7896482282620c09defe1491e69d040a}{{4.9}{44}{Private Slots\relax }{section*.45}{}}
\newlabel{a00009_a1512b66c93874af7397d2edb92f81d4b}{{4.9}{44}{Private Slots\relax }{section*.45}{}}
\newlabel{a00009_a8ac2e25d78f66fd05601c1634ef6f301}{{4.9}{44}{Private Slots\relax }{section*.45}{}}
\newlabel{a00009_af468142be24e0044ce1b5dde329f4610}{{4.9}{44}{Private Slots\relax }{section*.45}{}}
\newlabel{a00009_a15c8f8fdd333973e35284bac561f50a3}{{4.9}{44}{Private Slots\relax }{section*.45}{}}
\newlabel{a00009_ab952ba3d325b280fa1018dacad391d4c}{{4.9}{44}{Private Slots\relax }{section*.45}{}}
\newlabel{a00009_a3a000a603d983b696749d1f6c03da006}{{4.9}{44}{Private Slots\relax }{section*.45}{}}
\newlabel{a00009_ad79ebd4c1c0a8fc8449667b3209600b0}{{4.9}{44}{Private Slots\relax }{section*.45}{}}
\newlabel{a00009_a0b93653a6a682d6878c499db70c6283e}{{4.9}{44}{Private Slots\relax }{section*.45}{}}
\newlabel{a00009_a8a34afe957a6113fca55fe300698f406}{{4.9}{44}{Private Slots\relax }{section*.45}{}}
\newlabel{a00009_a9fe39014626e52599cdf6718d09a743a}{{4.9}{44}{Private Slots\relax }{section*.45}{}}
\newlabel{a00009_aeebb8c063619d5bfa7b7092c32183854}{{4.9}{44}{Private Slots\relax }{section*.45}{}}
\newlabel{a00009_ada704bf4fd753205bb1c25fe832e6890}{{4.9}{44}{Private Slots\relax }{section*.45}{}}
\newlabel{a00009_a92ddbd1161b0212d511a4093facfe3c2}{{4.9}{44}{Private Slots\relax }{section*.45}{}}
\newlabel{a00009_a671e7e5b0a3a7a3fb1cf44c5c8377952}{{4.9}{45}{Các hàm thành viên Private\relax }{section*.46}{}}
\newlabel{a00009_a06476208b8466211f3bb0fcae787052b}{{4.9}{45}{Các hàm thành viên Private\relax }{section*.46}{}}
\newlabel{a00009_a49be45fc9b993fdc3afe55d4b6fa0650}{{4.9}{45}{Các hàm thành viên Private\relax }{section*.46}{}}
\newlabel{a00009_afcf77332d90edc94daa4d7283c061a90}{{4.9}{45}{Các hàm thành viên Private\relax }{section*.46}{}}
\newlabel{a00009_afa596419521bc4f537290d4f32bce659}{{4.9}{45}{Các hàm thành viên Private\relax }{section*.46}{}}
\newlabel{a00009_ab03270fd7d6947737a5e3d57684c8547}{{4.9}{45}{Các hàm thành viên Private\relax }{section*.46}{}}
\newlabel{a00009_a519b11d7ec810ebedb449f59a8482439}{{4.9}{45}{Các hàm thành viên Private\relax }{section*.46}{}}
\newlabel{a00009_ab15809fe98998fe084f11c87936a9935}{{4.9}{45}{Các hàm thành viên Private\relax }{section*.46}{}}
\newlabel{a00009_a5197060a4c436bf8f4e9f24fc387dc7d}{{4.9}{45}{Các hàm thành viên Private\relax }{section*.46}{}}
\newlabel{a00009_a8f3ff061fc8d5ad84b005b3c85aea6a0}{{4.9}{45}{Các hàm thành viên Private\relax }{section*.46}{}}
\newlabel{a00009_a8f70d6c384f8c6832e8eeccf11456612}{{4.9}{45}{Các hàm thành viên Private\relax }{section*.46}{}}
\newlabel{a00009_a5bac149031231abd60e69c95b457eda8}{{4.9}{45}{Các hàm thành viên Private\relax }{section*.46}{}}
\newlabel{a00009_a1102bcac31d0dced3cd0312c383bc402}{{4.9}{45}{Các hàm thành viên Private\relax }{section*.46}{}}
\newlabel{a00009_a44eb5d77b382a5acd4b0091f499f4352}{{4.9}{45}{Các hàm thành viên Private\relax }{section*.46}{}}
\newlabel{a00009_affa76730fa370a3466b62a4caee721e3}{{4.9}{45}{Các hàm thành viên Private\relax }{section*.46}{}}
\newlabel{a00009_a6b0f59e651f00dcb8f2e33f3104975ef}{{4.9}{45}{Các hàm thành viên Private\relax }{section*.46}{}}
\newlabel{a00009_ae135902f9dce7f8458ee779a21e0a2b5}{{4.9}{45}{Các hàm thành viên Private\relax }{section*.46}{}}
\newlabel{a00009_ab3732031a127efe2b54f878a7ab9d1e8}{{4.9}{45}{Các hàm thành viên Static Private\relax }{section*.47}{}}
\newlabel{a00009_ac750a97918b28bb0d2eec51173696728}{{4.9}{45}{Các hàm thành viên Static Private\relax }{section*.47}{}}
\newlabel{a00009_a27a34fd086f02c52aa1b4e2329e52fc9}{{4.9}{45}{Các hàm thành viên Static Private\relax }{section*.47}{}}
\newlabel{a00009_afcc4de380e40fe4aeb61b07402f00f58}{{4.9}{45}{Các thuộc tính Private\relax }{section*.48}{}}
\newlabel{a00009_ab5342d85523e2dad5b6f69a6ad01ece3}{{4.9}{45}{Các thuộc tính Private\relax }{section*.48}{}}
\newlabel{a00009_a2ca8ac2ccd160f0716b05f7b952a8b39}{{4.9}{45}{Các thuộc tính Private\relax }{section*.48}{}}
\newlabel{a00009_a379144372bbb5dafab0ca4ff9618f2af}{{4.9}{45}{Các thuộc tính Private\relax }{section*.48}{}}
\newlabel{a00009_a47e2a1fca517253fd61c5240a4cbaf24}{{4.9}{45}{Các thuộc tính Private\relax }{section*.48}{}}
\newlabel{a00009_a20fca9489a506a24f560669d9b6b187e}{{4.9}{45}{Các thuộc tính Private\relax }{section*.48}{}}
\newlabel{a00009_a582f28f70501d0098d8407c6bd9f02eb}{{4.9}{45}{Các thuộc tính Private\relax }{section*.48}{}}
\newlabel{a00009_a13f53721e86b85b5bd146bfa29a77bc2}{{4.9}{45}{Các thuộc tính Private\relax }{section*.48}{}}
\newlabel{a00009_a371cf75de921f7dc630babc11379681b}{{4.9}{45}{Các thuộc tính Private\relax }{section*.48}{}}
\newlabel{a00009_aca6e412c6008053d39c5fbaf5133274b}{{4.9}{45}{Các thuộc tính Private\relax }{section*.48}{}}
\newlabel{a00009_aa1ea7fe519e373af34ba4f7669df14cd}{{4.9}{45}{Các thuộc tính Private\relax }{section*.48}{}}
\newlabel{a00009_a7e54fd1744b20605f089914ffc8a4131}{{4.9}{45}{Các thuộc tính Private\relax }{section*.48}{}}
\newlabel{a00009_a5ed0ea29383cdd49571a143593c09d75}{{4.9}{45}{Các thuộc tính Private\relax }{section*.48}{}}
\newlabel{a00009_ac62e40308c1db77049bc78d5f59f1f85}{{4.9}{45}{Các thuộc tính Private\relax }{section*.48}{}}
\newlabel{a00009_af536d3420ba95fea34b2975b2a5551ed}{{4.9}{45}{Các thuộc tính Private\relax }{section*.48}{}}
\newlabel{a00009_a36eff2451b75542c993e16a9bca7ece1}{{4.9}{45}{Các thuộc tính Private\relax }{section*.48}{}}
\newlabel{a00009_a615b5fea8896b73dee2df6e991597d0d}{{4.9}{45}{Các thuộc tính Private\relax }{section*.48}{}}
\newlabel{a00009_ab414e3d4f0bd1baa84deec9e77bc4f49}{{4.9}{45}{Các thuộc tính Private\relax }{section*.48}{}}
\newlabel{a00009_ab88aefc4345f0988e18bcb0abf2a54ad}{{4.9}{45}{Các thuộc tính Private\relax }{section*.48}{}}
\newlabel{a00009_ac94b6127ebf6641899de4436af09699b}{{4.9}{45}{Các thuộc tính Private\relax }{section*.48}{}}
\newlabel{a00009_a970c71bcf8e8be9ec3fc03ed902d19e6}{{4.9}{45}{Các thuộc tính Private\relax }{section*.48}{}}
\newlabel{a00009_ae94af93e2b3108e87fd07131995d1d77}{{4.9}{45}{Các thuộc tính Private\relax }{section*.48}{}}
\newlabel{a00009_a1d89b7595130fd4f69cc760580e85626}{{4.9}{45}{Các thuộc tính Private\relax }{section*.48}{}}
\newlabel{a00009_a48286dd482077301d75edd63162d2db5}{{4.9}{45}{Các thuộc tính Private\relax }{section*.48}{}}
\newlabel{a00009_a292638663e7e4074aa073951337fa511}{{4.9}{45}{Các thuộc tính Private\relax }{section*.48}{}}
\newlabel{a00009_a423e2cfd9b53e00537ef08b028948803}{{4.9}{45}{Các thuộc tính Private\relax }{section*.48}{}}
\newlabel{a00009_a4bd308535d60c874fdc41c6dda3468c6}{{4.9}{46}{Các thuộc tính Private\relax }{section*.48}{}}
\newlabel{a00009_ae5874716d599e73944038d4ddd9ccf83}{{4.9}{46}{Các thuộc tính Private\relax }{section*.48}{}}
\newlabel{a00009_af843f45918bb434ed122f2a9a5b0a2b7}{{4.9}{46}{Các thuộc tính Private\relax }{section*.48}{}}
\newlabel{a00009_aa0b2ba52ee95443e737d95211b82137a}{{4.9}{46}{Các thuộc tính Private\relax }{section*.48}{}}
\newlabel{a00009_a332c2abbb12a787b5c4b5376d974e436}{{4.9}{46}{Các thuộc tính Private\relax }{section*.48}{}}
\newlabel{a00009_a2d573ab333e774c5c750990b2a817628}{{4.9}{46}{Các thuộc tính Private\relax }{section*.48}{}}
\newlabel{a00009_ae4f075b57aeff1bd2c0fb590c177a048}{{4.9}{46}{Các thuộc tính Private\relax }{section*.48}{}}
\newlabel{a00009_abcb29198d52c59273f086192e6ff081b}{{4.9}{46}{Các thuộc tính Private\relax }{section*.48}{}}
\newlabel{a00009_acc652551a2fc36689ecab80b095688ba}{{4.9}{46}{Các thuộc tính Private\relax }{section*.48}{}}
\newlabel{a00009_a877060b102a27c84ea1d84d92e753fef}{{4.9}{46}{Các thuộc tính Private\relax }{section*.48}{}}
\newlabel{a00009_a5eb198641739433bf927b958fa133e48}{{4.9}{46}{Các thuộc tính Private\relax }{section*.48}{}}
\newlabel{a00009_a12a13ffca8fa292c7db4c42a2ce71559}{{4.9}{46}{Các thuộc tính Private\relax }{section*.48}{}}
\newlabel{a00009_a4cce517c008180d5e5c2802476c2be36}{{4.9}{46}{Các thuộc tính Private\relax }{section*.48}{}}
\newlabel{a00009_a2840870ed260be8915f0e2a20f1f21ce}{{4.9}{46}{Các thuộc tính Private\relax }{section*.48}{}}
\newlabel{a00009_a9b9f7e8556ec31148af94624720b0123}{{4.9}{46}{Các thuộc tính Private\relax }{section*.48}{}}
\newlabel{a00009_a1029a8ec5da67157168942b571f62130}{{4.9}{46}{Các thuộc tính Private\relax }{section*.48}{}}
\newlabel{a00009_abb234eb0088654901b0fdfaf74ba10ba}{{4.9}{46}{Các thuộc tính Private\relax }{section*.48}{}}
\newlabel{a00009_aaa3c18682fdf29162173ba2e2bdbec39}{{4.9}{46}{Các thuộc tính Private\relax }{section*.48}{}}
\newlabel{a00009_a4d5c6034e8c3f564dcc7f1c64094d3c0}{{4.9}{46}{Các thuộc tính Private\relax }{section*.48}{}}
\newlabel{a00009_a80e6b94350f787e18aa0c1c74379fb51}{{4.9}{46}{Các thuộc tính Private\relax }{section*.48}{}}
\newlabel{a00009_a3ec26e9ed1155ff213310ea08b1683a6}{{4.9}{46}{Các thuộc tính Private\relax }{section*.48}{}}
\newlabel{a00009_a285395aec8fd01bec6bedcad73b86a55}{{4.9}{46}{Các thuộc tính Private\relax }{section*.48}{}}
\newlabel{a00009_a2ca04227e7d71b036ccd0ed4176a5561}{{4.9}{46}{Các thuộc tính Private\relax }{section*.48}{}}
\newlabel{a00009_a11a3225fe126ba8b61d5627a3a5fcfde}{{4.9}{46}{Các thuộc tính Private\relax }{section*.48}{}}
\newlabel{a00009_a57793b17cc2b8de42b5b10e9458ae9cb}{{4.9}{46}{Các thuộc tính Private\relax }{section*.48}{}}
\newlabel{a00009_a1d8195e0ab3f1e8a0c5d9dae6fff96ab}{{4.9}{46}{Các thuộc tính Private\relax }{section*.48}{}}
\newlabel{a00009_adac73326aafba5fcd15dfb3f40ebf675}{{4.9}{46}{Các thuộc tính Private\relax }{section*.48}{}}
\newlabel{a00009_a51ec7fcfcb60073b395dee46daacf1f9}{{4.9}{46}{Các thuộc tính Private\relax }{section*.48}{}}
\newlabel{a00009_a0a352c6d66b7a080fcf558874a7e51d4}{{4.9}{46}{Các thuộc tính Private\relax }{section*.48}{}}
\newlabel{a00009_a35ff04c3d934b2694c75192cfb40e14e}{{4.9}{46}{Các thuộc tính Private\relax }{section*.48}{}}
\newlabel{a00009_aeb0cc80e66089cae2a5c3ac2015ade95}{{4.9}{46}{Các thuộc tính Private\relax }{section*.48}{}}
\newlabel{a00009_a7baaf20df405674b068a521c5e4e4d47}{{4.9}{46}{Các thuộc tính Private\relax }{section*.48}{}}
\newlabel{a00009_af498ebb078449653d5d54b4f3cd37e05}{{4.9}{46}{Các thuộc tính Private\relax }{section*.48}{}}
\newlabel{a00009_a2e55d4a6ae6f621aeda5049ff47798a9}{{4.9}{46}{Các thuộc tính Private\relax }{section*.48}{}}
\newlabel{a00009_afa1f901d8c58a3aa98621d9d696db665}{{4.9}{46}{Các thuộc tính Private\relax }{section*.48}{}}
\newlabel{a00009_a4a04910f3193303a44506b44521b61b0}{{4.9}{46}{Các thuộc tính Private\relax }{section*.48}{}}
\newlabel{a00009_ad3bde47a75b6c59146d6aff1752d077f}{{4.9}{46}{Các thuộc tính Private\relax }{section*.48}{}}
\newlabel{a00009_ac185af84819e629a113f17629cfba3f8}{{4.9}{46}{Các thuộc tính Private\relax }{section*.48}{}}
\newlabel{a00009_aea74a0f2eda056fef1ed3b20cb94fa23}{{4.9}{46}{Các thuộc tính Private\relax }{section*.48}{}}
\newlabel{a00009_aca4a846ad7645b5be95afd4655cacb92}{{4.9}{46}{Các thuộc tính Private\relax }{section*.48}{}}
\newlabel{a00009_a26d3703cf4138990d55fdf7e4538a2b6}{{4.9}{46}{Các thuộc tính Private\relax }{section*.48}{}}
\newlabel{a00009_ae5d36ad31950a76935440e9c68dd0b37}{{4.9}{46}{Các thuộc tính Private\relax }{section*.48}{}}
\newlabel{a00009_a68fc3750f9f135b7f0400488a630d248}{{4.9}{46}{Các thuộc tính Private\relax }{section*.48}{}}
\newlabel{a00009_a3e167186d3a81c551eb9c0c5e4a568ae}{{4.9}{46}{Các thuộc tính Private\relax }{section*.48}{}}
\newlabel{a00009_a7ce1e832a8f1275cdceee16e65a1fb67}{{4.9}{46}{Các thuộc tính Private\relax }{section*.48}{}}
\newlabel{a00009_a9049c5b2cfba9bd2d41ca2789d7227d7}{{4.9}{46}{Các thuộc tính Private\relax }{section*.48}{}}
\newlabel{a00009_afa4ad31d4ee4ce1700fe5adc95e89e78}{{4.9}{46}{Các thuộc tính Private\relax }{section*.48}{}}
\newlabel{a00009_a4d0e96066e8e6dc1897239942675a290}{{4.9}{46}{Các thuộc tính Static Private\relax }{section*.49}{}}
\newlabel{a00009_a9072aad0aef54db369b3cf8c40603d79}{{4.9}{46}{Các thuộc tính Static Private\relax }{section*.49}{}}
\newlabel{a00009_a5da3900698b42299bb3a3d00da98dc61}{{4.9}{46}{Các thuộc tính Static Private\relax }{section*.49}{}}
\newlabel{a00009_aeea8b32c7e3012381cb3e4f48c1ebca6}{{4.9}{46}{Các thuộc tính Static Private\relax }{section*.49}{}}
\newlabel{a00009_a552a7671aad7741cb29dacf3a14130b3}{{4.9}{46}{Các thuộc tính Static Private\relax }{section*.49}{}}
\@writefile{toc}{\contentsline {subsection}{\numberline {4.9.1}M\IeC {\^o} t\IeC {\h a} chi ti\IeC {\'\ecircumflex }t}{47}{subsection.4.9.1}}
\@writefile{toc}{\contentsline {subsection}{\numberline {4.9.2}Th\IeC {\^o}ng tin v\IeC {\`\ecircumflex } Member Data}{47}{subsection.4.9.2}}
\@writefile{toc}{\contentsline {subsubsection}{\numberline {4.9.2.1}icon\discretionary {-}{}{}Path}{47}{subsubsection.4.9.2.1}}
\newlabel{a00009_a6cbd450bcc636916fd4c9ff129725387}{{4.9.2.1}{47}{icon\-Path\relax }{subsubsection.4.9.2.1}{}}
\@writefile{toc}{\contentsline {section}{\numberline {4.10}Mouse\discretionary {-}{}{}Press Class Tham chi\IeC {\'\ecircumflex }u}{47}{section.4.10}}
\newlabel{a00010}{{4.10}{47}{Mouse\-Press Class Tham chiếu\relax }{section.4.10}{}}
\newlabel{a00010_a7d3b521cd639481f4a6a55ae899598de}{{4.10}{49}{Các hàm thành viên Public\relax }{section*.50}{}}
\gdef \LT@xxviii {\LT@entry 
    {1}{78.18367pt}\LT@entry 
    {1}{380.5249pt}}
\newlabel{a00010_a3bbf798eda66f006e78a6574c125c72a}{{4.10}{50}{Các thuộc tính Static Public\relax }{section*.52}{}}
\newlabel{a00010_a6597085ef495c729e0c9bf3ec6c6edca}{{4.10}{50}{Các kiểu Private\relax }{section*.53}{}}
\newlabel{a00010_ac50eaeda4e37e264c62a3cd57098f86d}{{4.10}{50}{Các kiểu Private\relax }{section*.53}{}}
\@writefile{toc}{\contentsline {subsection}{\numberline {4.10.1}M\IeC {\^o} t\IeC {\h a} chi ti\IeC {\'\ecircumflex }t}{50}{subsection.4.10.1}}
\@writefile{toc}{\contentsline {subsection}{\numberline {4.10.2}Th\IeC {\^o}ng tin v\IeC {\`\ecircumflex } h\IeC {\`a}m th\IeC {\`a}nh vi\IeC {\^e}n}{50}{subsection.4.10.2}}
\@writefile{toc}{\contentsline {subsubsection}{\numberline {4.10.2.1}load}{50}{subsubsection.4.10.2.1}}
\newlabel{a00010_aa9f418fb4b503eea79ffd5a13f6d2470}{{4.10.2.1}{50}{load\relax }{subsubsection.4.10.2.1}{}}
\gdef \LT@xxix {\LT@entry 
    {1}{78.18367pt}\LT@entry 
    {1}{380.5249pt}}
\gdef \LT@xxx {\LT@entry 
    {1}{78.18367pt}\LT@entry 
    {1}{380.5249pt}}
\gdef \LT@xxxi {\LT@entry 
    {1}{78.18367pt}\LT@entry 
    {1}{380.5249pt}}
\@writefile{toc}{\contentsline {subsubsection}{\numberline {4.10.2.2}operate}{51}{subsubsection.4.10.2.2}}
\newlabel{a00010_a617c520d9290c91321dac94e17d6d2ac}{{4.10.2.2}{51}{operate\relax }{subsubsection.4.10.2.2}{}}
\@writefile{toc}{\contentsline {subsubsection}{\numberline {4.10.2.3}save}{51}{subsubsection.4.10.2.3}}
\newlabel{a00010_adfb1bce4e87095395d7682dab7ca7a67}{{4.10.2.3}{51}{save\relax }{subsubsection.4.10.2.3}{}}
\@writefile{toc}{\contentsline {subsubsection}{\numberline {4.10.2.4}set\discretionary {-}{}{}Changed\discretionary {-}{}{}Part}{51}{subsubsection.4.10.2.4}}
\newlabel{a00010_ad0dcc81fa0e3b4d144cd75cd2466a4a0}{{4.10.2.4}{51}{set\-Changed\-Part\relax }{subsubsection.4.10.2.4}{}}
\gdef \LT@xxxii {\LT@entry 
    {1}{78.18367pt}\LT@entry 
    {1}{380.5249pt}}
\@writefile{toc}{\contentsline {subsubsection}{\numberline {4.10.2.5}set\discretionary {-}{}{}Last\discretionary {-}{}{}Top\discretionary {-}{}{}Left}{52}{subsubsection.4.10.2.5}}
\newlabel{a00010_ad59ee274c646fd6c369ff2658de8596b}{{4.10.2.5}{52}{set\-Last\-Top\-Left\relax }{subsubsection.4.10.2.5}{}}
\@writefile{toc}{\contentsline {subsubsection}{\numberline {4.10.2.6}type}{52}{subsubsection.4.10.2.6}}
\newlabel{a00010_ae55ff48474b4b4bc4486bac478f9a7c2}{{4.10.2.6}{52}{type\relax }{subsubsection.4.10.2.6}{}}
\@writefile{toc}{\contentsline {subsection}{\numberline {4.10.3}Th\IeC {\^o}ng tin v\IeC {\`\ecircumflex } Member Data}{52}{subsection.4.10.3}}
\@writefile{toc}{\contentsline {subsubsection}{\numberline {4.10.3.1}changed\discretionary {-}{}{}Part}{52}{subsubsection.4.10.3.1}}
\newlabel{a00010_ae5f4f86b3e41507dfa34a43873aac0aa}{{4.10.3.1}{52}{changed\-Part\relax }{subsubsection.4.10.3.1}{}}
\@writefile{toc}{\contentsline {subsubsection}{\numberline {4.10.3.2}last\discretionary {-}{}{}Top\discretionary {-}{}{}Left}{52}{subsubsection.4.10.3.2}}
\newlabel{a00010_a257d6618c73d91ab02da1f096d650204}{{4.10.3.2}{52}{last\-Top\-Left\relax }{subsubsection.4.10.3.2}{}}
\@writefile{toc}{\contentsline {section}{\numberline {4.11}New\discretionary {-}{}{}File\discretionary {-}{}{}Option Struct Tham chi\IeC {\'\ecircumflex }u}{53}{section.4.11}}
\newlabel{a00011}{{4.11}{53}{New\-File\-Option Struct Tham chiếu\relax }{section.4.11}{}}
\newlabel{a00011_a6053aaad802f96291c189a8d49314e4b}{{4.11}{53}{Các thuộc tính Public\relax }{section*.55}{}}
\newlabel{a00011_ad62b1710af770befbc359d806365116b}{{4.11}{53}{Các thuộc tính Public\relax }{section*.55}{}}
\newlabel{a00011_a0746ff85ae370f18af61335a5f71d104}{{4.11}{53}{Các thuộc tính Public\relax }{section*.55}{}}
\@writefile{toc}{\contentsline {subsection}{\numberline {4.11.1}M\IeC {\^o} t\IeC {\h a} chi ti\IeC {\'\ecircumflex }t}{53}{subsection.4.11.1}}
\@writefile{toc}{\contentsline {section}{\numberline {4.12}New\discretionary {-}{}{}File\discretionary {-}{}{}Option\discretionary {-}{}{}Dialog Class Tham chi\IeC {\'\ecircumflex }u}{54}{section.4.12}}
\newlabel{a00012}{{4.12}{54}{New\-File\-Option\-Dialog Class Tham chiếu\relax }{section.4.12}{}}
\newlabel{a00012_acd5d303bef207cb81a813812133fb8b6}{{4.12}{55}{Các hàm thành viên Public\relax }{section*.56}{}}
\newlabel{a00012_af6299838d9de2fde18b365bea1d04a5c}{{4.12}{55}{Các hàm thành viên Public\relax }{section*.56}{}}
\newlabel{a00012_ab344c5621dddb14c5d8dbd2c2f6bcfdd}{{4.12}{55}{Private Slots\relax }{section*.57}{}}
\newlabel{a00012_a1c39cd3ae6d4e1f29f5971e8aa3c30ef}{{4.12}{55}{Các thuộc tính Private\relax }{section*.58}{}}
\newlabel{a00012_a658fbd020c5dce938c3baf21d8831229}{{4.12}{55}{Các thuộc tính Private\relax }{section*.58}{}}
\newlabel{a00012_a8529ab989207a294c67326b64fe9511c}{{4.12}{55}{Các thuộc tính Private\relax }{section*.58}{}}
\newlabel{a00012_ac89b63648231c2b9c8387a6f1105dcf6}{{4.12}{55}{Các thuộc tính Private\relax }{section*.58}{}}
\newlabel{a00012_a86fde0f4bec6fad06c28950c6e8e2467}{{4.12}{55}{Các thuộc tính Private\relax }{section*.58}{}}
\@writefile{toc}{\contentsline {subsection}{\numberline {4.12.1}M\IeC {\^o} t\IeC {\h a} chi ti\IeC {\'\ecircumflex }t}{55}{subsection.4.12.1}}
\@writefile{toc}{\contentsline {section}{\numberline {4.13}Op\discretionary {-}{}{}Pair Struct Tham chi\IeC {\'\ecircumflex }u}{56}{section.4.13}}
\newlabel{a00013}{{4.13}{56}{Op\-Pair Struct Tham chiếu\relax }{section.4.13}{}}
\newlabel{a00013_abee58dbbb0827cea9c0dd8f669239448}{{4.13}{56}{Các thuộc tính Public\relax }{section*.59}{}}
\newlabel{a00013_a8b67f2b2162969cc40f539baae1cae38}{{4.13}{56}{Các thuộc tính Public\relax }{section*.59}{}}
\@writefile{toc}{\contentsline {subsection}{\numberline {4.13.1}M\IeC {\^o} t\IeC {\h a} chi ti\IeC {\'\ecircumflex }t}{56}{subsection.4.13.1}}
\@writefile{toc}{\contentsline {section}{\numberline {4.14}Paint\discretionary {-}{}{}Operation Class Tham chi\IeC {\'\ecircumflex }u}{56}{section.4.14}}
\newlabel{a00014}{{4.14}{56}{Paint\-Operation Class Tham chiếu\relax }{section.4.14}{}}
\@writefile{toc}{\contentsline {subsection}{\numberline {4.14.1}M\IeC {\^o} t\IeC {\h a} chi ti\IeC {\'\ecircumflex }t}{57}{subsection.4.14.1}}
\gdef \LT@xxxiii {\LT@entry 
    {1}{78.18367pt}\LT@entry 
    {1}{380.5249pt}}
\gdef \LT@xxxiv {\LT@entry 
    {1}{78.18367pt}\LT@entry 
    {1}{380.5249pt}}
\@writefile{toc}{\contentsline {subsection}{\numberline {4.14.2}Th\IeC {\^o}ng tin v\IeC {\`\ecircumflex } Constructor v\IeC {\`a} Destructor}{58}{subsection.4.14.2}}
\@writefile{toc}{\contentsline {subsubsection}{\numberline {4.14.2.1}$\sim $\discretionary {-}{}{}Paint\discretionary {-}{}{}Operation}{58}{subsubsection.4.14.2.1}}
\newlabel{a00014_a612a16e5ff3e0f09f2f178a482b7b2a3}{{4.14.2.1}{58}{$\sim $\-Paint\-Operation\relax }{subsubsection.4.14.2.1}{}}
\@writefile{toc}{\contentsline {subsection}{\numberline {4.14.3}Th\IeC {\^o}ng tin v\IeC {\`\ecircumflex } h\IeC {\`a}m th\IeC {\`a}nh vi\IeC {\^e}n}{58}{subsection.4.14.3}}
\@writefile{toc}{\contentsline {subsubsection}{\numberline {4.14.3.1}load}{58}{subsubsection.4.14.3.1}}
\newlabel{a00014_a791f13938de56e68e0006ae2e16d089d}{{4.14.3.1}{58}{load\relax }{subsubsection.4.14.3.1}{}}
\@writefile{toc}{\contentsline {subsubsection}{\numberline {4.14.3.2}operate}{58}{subsubsection.4.14.3.2}}
\newlabel{a00014_ae954ee362a29eb8bbc826112762583bc}{{4.14.3.2}{58}{operate\relax }{subsubsection.4.14.3.2}{}}
\gdef \LT@xxxv {\LT@entry 
    {1}{78.18367pt}\LT@entry 
    {1}{380.5249pt}}
\@writefile{toc}{\contentsline {subsubsection}{\numberline {4.14.3.3}save}{59}{subsubsection.4.14.3.3}}
\newlabel{a00014_a04e068f1d90c5ae6c786357dc6457ac1}{{4.14.3.3}{59}{save\relax }{subsubsection.4.14.3.3}{}}
\@writefile{toc}{\contentsline {subsubsection}{\numberline {4.14.3.4}type}{59}{subsubsection.4.14.3.4}}
\newlabel{a00014_ae65900f5bd2eccf9138fc3974cbee819}{{4.14.3.4}{59}{type\relax }{subsubsection.4.14.3.4}{}}
\@writefile{toc}{\contentsline {section}{\numberline {4.15}Color\discretionary {-}{}{}Picker\discretionary {-}{}{}:\discretionary {-}{}{}:Palette Struct Tham chi\IeC {\'\ecircumflex }u}{59}{section.4.15}}
\newlabel{a00015}{{4.15}{59}{Color\-Picker\-:\-:Palette Struct Tham chiếu\relax }{section.4.15}{}}
\newlabel{a00015_a756ddb15afdf8de33ad7490fc26bb3a2}{{4.15}{60}{Các thuộc tính Public\relax }{section*.61}{}}
\newlabel{a00015_a919c97b8203353a47f29258cba001815}{{4.15}{60}{Các thuộc tính Public\relax }{section*.61}{}}
\@writefile{toc}{\contentsline {subsection}{\numberline {4.15.1}M\IeC {\^o} t\IeC {\h a} chi ti\IeC {\'\ecircumflex }t}{60}{subsection.4.15.1}}
\@writefile{toc}{\contentsline {section}{\numberline {4.16}Color\discretionary {-}{}{}Picker\discretionary {-}{}{}:\discretionary {-}{}{}:Palette\discretionary {-}{}{}Color Struct Tham chi\IeC {\'\ecircumflex }u}{60}{section.4.16}}
\newlabel{a00016}{{4.16}{60}{Color\-Picker\-:\-:Palette\-Color Struct Tham chiếu\relax }{section.4.16}{}}
\newlabel{a00016_a43628806713de2dec73e9738951fd397}{{4.16}{61}{Các thuộc tính Public\relax }{section*.62}{}}
\newlabel{a00016_ae8cda783a9a9d24544c9040cfaedda8d}{{4.16}{61}{Các thuộc tính Public\relax }{section*.62}{}}
\@writefile{toc}{\contentsline {subsection}{\numberline {4.16.1}M\IeC {\^o} t\IeC {\h a} chi ti\IeC {\'\ecircumflex }t}{61}{subsection.4.16.1}}
\@writefile{toc}{\contentsline {section}{\numberline {4.17}Player Class Tham chi\IeC {\'\ecircumflex }u}{61}{section.4.17}}
\newlabel{a00017}{{4.17}{61}{Player Class Tham chiếu\relax }{section.4.17}{}}
\newlabel{a00017_a8cd819ec3812c26e038e74426bc2b90f}{{4.17}{63}{Public Slots\relax }{section*.63}{}}
\newlabel{a00017_aa7749254cf909d029127d4622670c522}{{4.17}{63}{Public Slots\relax }{section*.63}{}}
\newlabel{a00017_aa286cb87328b067ffd2e722d0d389755}{{4.17}{63}{Public Slots\relax }{section*.63}{}}
\newlabel{a00017_a6cb4fd9dbd39b70169255b9a8342503b}{{4.17}{63}{Public Slots\relax }{section*.63}{}}
\newlabel{a00017_a48117754c074bdba06951f6e1d494d03}{{4.17}{64}{Signals\relax }{section*.64}{}}
\newlabel{a00017_a11c6dfbafc79f4993298f2135a515cd2}{{4.17}{64}{Signals\relax }{section*.64}{}}
\newlabel{a00017_a705de603d9abbdd8dfe75327ee293e08}{{4.17}{64}{Signals\relax }{section*.64}{}}
\newlabel{a00017_a695f2f58f0bb3a2af7415a386bb4245c}{{4.17}{64}{Signals\relax }{section*.64}{}}
\newlabel{a00017_a60e7e03d561be8b4adc9f14e816c5888}{{4.17}{64}{Signals\relax }{section*.64}{}}
\newlabel{a00017_a090b2b837ef5eb901d62731b93d8c93f}{{4.17}{64}{Signals\relax }{section*.64}{}}
\newlabel{a00017_ae615bcb37db48e5bd004cedae9913d31}{{4.17}{64}{Các hàm thành viên Public\relax }{section*.65}{}}
\newlabel{a00017_ab8211be2682416203692cb62abcfc093}{{4.17}{64}{Các hàm thành viên Public\relax }{section*.65}{}}
\newlabel{a00017_a90e7306983bdf1601eb6b6b6fae4e0e0}{{4.17}{64}{Các hàm thành viên Public\relax }{section*.65}{}}
\newlabel{a00017_ab5a059c57797c20d4c31057ce9721b49}{{4.17}{64}{Các hàm thành viên Public\relax }{section*.65}{}}
\newlabel{a00017_a9f4848eb57af300ae40be9ff7aa0af55}{{4.17}{64}{Các hàm thành viên Public\relax }{section*.65}{}}
\newlabel{a00017_a74f63b5d2d98396bb0bb2e40958abf71}{{4.17}{64}{Các hàm thành viên Public\relax }{section*.65}{}}
\newlabel{a00017_ab67ad04ce4eaa5471004e7d0a0b5a535}{{4.17}{64}{Các hàm thành viên Public\relax }{section*.65}{}}
\newlabel{a00017_ac45500b4f008c3eb622872942a3bd272}{{4.17}{64}{Các hàm thành viên Public\relax }{section*.65}{}}
\newlabel{a00017_a4289d2cba0babe8476b94ed28975acb5}{{4.17}{64}{Các hàm thành viên Public\relax }{section*.65}{}}
\newlabel{a00017_aca5d0df95ba84ba34f8e56c0846fa8b5}{{4.17}{64}{Các hàm thành viên Public\relax }{section*.65}{}}
\newlabel{a00017_a37169eb88fc03b853dda68363877166a}{{4.17}{64}{Các hàm thành viên Public\relax }{section*.65}{}}
\newlabel{a00017_a60782f68fc8adba780793c2c22089d9d}{{4.17}{64}{Các hàm thành viên Public\relax }{section*.65}{}}
\newlabel{a00017_acb0c4108a4c00dc69917acbb56187852}{{4.17}{64}{Các hàm thành viên Protected\relax }{section*.66}{}}
\newlabel{a00017_aa6575e6c10f770564b5dac9491648c2a}{{4.17}{64}{Các hàm thành viên Private\relax }{section*.67}{}}
\newlabel{a00017_a49ad7aff921e09acdb35070718eace78}{{4.17}{64}{Các thuộc tính Private\relax }{section*.68}{}}
\newlabel{a00017_a2b83c7aa2c35ff166f9b0676debd349b}{{4.17}{64}{Các thuộc tính Private\relax }{section*.68}{}}
\newlabel{a00017_adae4eea7dfcb0df70d828604b0253bbf}{{4.17}{64}{Các thuộc tính Private\relax }{section*.68}{}}
\newlabel{a00017_afe0cf1c2b2e711251754e03c54ef668d}{{4.17}{64}{Các thuộc tính Private\relax }{section*.68}{}}
\newlabel{a00017_a98d489c7de72ff303dd9589cb76fef69}{{4.17}{64}{Các thuộc tính Private\relax }{section*.68}{}}
\newlabel{a00017_abef0134cbb9f3b4e18df8ebfdbe165e3}{{4.17}{64}{Các thuộc tính Private\relax }{section*.68}{}}
\newlabel{a00017_a7801407f5dc6672be0bb13016decdc32}{{4.17}{64}{Các thuộc tính Private\relax }{section*.68}{}}
\newlabel{a00017_ae9119458ed3c353013d153001682db47}{{4.17}{64}{Các thuộc tính Private\relax }{section*.68}{}}
\newlabel{a00017_a332bfc1226e24fb62136f4ed481a7eaf}{{4.17}{64}{Các thuộc tính Private\relax }{section*.68}{}}
\newlabel{a00017_a6eba6426f7a052811d623e0d1c832c2a}{{4.17}{64}{Các thuộc tính Private\relax }{section*.68}{}}
\newlabel{a00017_a25b463ef0aad894f1de6124b10f943a2}{{4.17}{64}{Các thuộc tính Private\relax }{section*.68}{}}
\newlabel{a00017_ad6bbe5269abd5bc61c08f0ab27a95e74}{{4.17}{64}{Các thuộc tính Private\relax }{section*.68}{}}
\newlabel{a00017_aac7284f8a3b8c390937636fdbcaada21}{{4.17}{64}{Các thuộc tính Private\relax }{section*.68}{}}
\newlabel{a00017_aa7f1d97a3faa8ace7eb9570741fbbfe4}{{4.17}{64}{Các thuộc tính Private\relax }{section*.68}{}}
\newlabel{a00017_a495db7191641dccd8a4d3b9fe73fd72f}{{4.17}{64}{Các thuộc tính Private\relax }{section*.68}{}}
\gdef \LT@xxxvi {\LT@entry 
    {1}{78.18367pt}\LT@entry 
    {1}{380.5249pt}}
\@writefile{toc}{\contentsline {subsection}{\numberline {4.17.1}M\IeC {\^o} t\IeC {\h a} chi ti\IeC {\'\ecircumflex }t}{65}{subsection.4.17.1}}
\@writefile{toc}{\contentsline {subsection}{\numberline {4.17.2}Th\IeC {\^o}ng tin v\IeC {\`\ecircumflex } Constructor v\IeC {\`a} Destructor}{65}{subsection.4.17.2}}
\@writefile{toc}{\contentsline {subsubsection}{\numberline {4.17.2.1}Player}{65}{subsubsection.4.17.2.1}}
\newlabel{a00017_a6538cefdbb374ccca02daff4846db855}{{4.17.2.1}{65}{Player\relax }{subsubsection.4.17.2.1}{}}
\@writefile{toc}{\contentsline {subsubsection}{\numberline {4.17.2.2}Player}{65}{subsubsection.4.17.2.2}}
\newlabel{a00017_a5c2a46dbacbc28b7cfbe352b6c0db644}{{4.17.2.2}{65}{Player\relax }{subsubsection.4.17.2.2}{}}
\@writefile{toc}{\contentsline {subsubsection}{\numberline {4.17.2.3}$\sim $\discretionary {-}{}{}Player}{65}{subsubsection.4.17.2.3}}
\newlabel{a00017_a749d2c00e1fe0f5c2746f7505a58c062}{{4.17.2.3}{65}{$\sim $\-Player\relax }{subsubsection.4.17.2.3}{}}
\@writefile{toc}{\contentsline {subsection}{\numberline {4.17.3}Th\IeC {\^o}ng tin v\IeC {\`\ecircumflex } h\IeC {\`a}m th\IeC {\`a}nh vi\IeC {\^e}n}{65}{subsection.4.17.3}}
\@writefile{toc}{\contentsline {subsubsection}{\numberline {4.17.3.1}get\discretionary {-}{}{}Buffer}{65}{subsubsection.4.17.3.1}}
\newlabel{a00017_a67dc71bb12f2b316320e5dfc2138281f}{{4.17.3.1}{65}{get\-Buffer\relax }{subsubsection.4.17.3.1}{}}
\@writefile{toc}{\contentsline {subsubsection}{\numberline {4.17.3.2}set\discretionary {-}{}{}Interval\discretionary {-}{}{}By\discretionary {-}{}{}Speed}{65}{subsubsection.4.17.3.2}}
\newlabel{a00017_a42ad69fc669d5216637924fccb2f1751}{{4.17.3.2}{65}{set\-Interval\-By\-Speed\relax }{subsubsection.4.17.3.2}{}}
\@writefile{toc}{\contentsline {section}{\numberline {4.18}Set\discretionary {-}{}{}Brush Class Tham chi\IeC {\'\ecircumflex }u}{66}{section.4.18}}
\newlabel{a00018}{{4.18}{66}{Set\-Brush Class Tham chiếu\relax }{section.4.18}{}}
\newlabel{a00018_af8161fa203f59155413a04bf5df41fd2}{{4.18}{67}{Các hàm thành viên Public\relax }{section*.69}{}}
\newlabel{a00018_a0f5f46faefd4daff100dc5b31610e6b2}{{4.18}{67}{Các thuộc tính Static Public\relax }{section*.70}{}}
\newlabel{a00018_a5a6d7e0ecb3e3927614c81cba9ecb460}{{4.18}{67}{Các thuộc tính Private\relax }{section*.71}{}}
\gdef \LT@xxxvii {\LT@entry 
    {1}{78.18367pt}\LT@entry 
    {1}{380.5249pt}}
\gdef \LT@xxxviii {\LT@entry 
    {1}{78.18367pt}\LT@entry 
    {1}{380.5249pt}}
\@writefile{toc}{\contentsline {subsection}{\numberline {4.18.1}M\IeC {\^o} t\IeC {\h a} chi ti\IeC {\'\ecircumflex }t}{68}{subsection.4.18.1}}
\@writefile{toc}{\contentsline {subsection}{\numberline {4.18.2}Th\IeC {\^o}ng tin v\IeC {\`\ecircumflex } h\IeC {\`a}m th\IeC {\`a}nh vi\IeC {\^e}n}{68}{subsection.4.18.2}}
\@writefile{toc}{\contentsline {subsubsection}{\numberline {4.18.2.1}load}{68}{subsubsection.4.18.2.1}}
\newlabel{a00018_a66b47a1e6ed43b8fc8c4e2afda8fb29f}{{4.18.2.1}{68}{load\relax }{subsubsection.4.18.2.1}{}}
\@writefile{toc}{\contentsline {subsubsection}{\numberline {4.18.2.2}operate}{68}{subsubsection.4.18.2.2}}
\newlabel{a00018_ad95c1fb05653213721f9433d07dc1cdb}{{4.18.2.2}{68}{operate\relax }{subsubsection.4.18.2.2}{}}
\@writefile{toc}{\contentsline {subsubsection}{\numberline {4.18.2.3}save}{68}{subsubsection.4.18.2.3}}
\newlabel{a00018_abe1f8d36e6843ddf51b9ad202a017c35}{{4.18.2.3}{68}{save\relax }{subsubsection.4.18.2.3}{}}
\gdef \LT@xxxix {\LT@entry 
    {1}{78.18367pt}\LT@entry 
    {1}{380.5249pt}}
\@writefile{toc}{\contentsline {subsubsection}{\numberline {4.18.2.4}type}{69}{subsubsection.4.18.2.4}}
\newlabel{a00018_aaaad020fb46d8bd8cf559b24034b7dfc}{{4.18.2.4}{69}{type\relax }{subsubsection.4.18.2.4}{}}
\@writefile{toc}{\contentsline {section}{\numberline {4.19}Set\discretionary {-}{}{}Pen Class Tham chi\IeC {\'\ecircumflex }u}{69}{section.4.19}}
\newlabel{a00019}{{4.19}{69}{Set\-Pen Class Tham chiếu\relax }{section.4.19}{}}
\newlabel{a00019_a59bc44679020d0ea2501f2db468beedd}{{4.19}{71}{Các hàm thành viên Public\relax }{section*.72}{}}
\newlabel{a00019_ad54f6fe9711e8bb2b71eb80fcf2f524a}{{4.19}{71}{Các thuộc tính Static Public\relax }{section*.73}{}}
\newlabel{a00019_a9c42e041bd53ab952c2b4d10236b0dfe}{{4.19}{71}{Các thuộc tính Private\relax }{section*.74}{}}
\gdef \LT@xl {\LT@entry 
    {1}{78.18367pt}\LT@entry 
    {1}{380.5249pt}}
\gdef \LT@xli {\LT@entry 
    {1}{78.18367pt}\LT@entry 
    {1}{380.5249pt}}
\gdef \LT@xlii {\LT@entry 
    {1}{78.18367pt}\LT@entry 
    {1}{380.5249pt}}
\@writefile{toc}{\contentsline {subsection}{\numberline {4.19.1}M\IeC {\^o} t\IeC {\h a} chi ti\IeC {\'\ecircumflex }t}{72}{subsection.4.19.1}}
\@writefile{toc}{\contentsline {subsection}{\numberline {4.19.2}Th\IeC {\^o}ng tin v\IeC {\`\ecircumflex } h\IeC {\`a}m th\IeC {\`a}nh vi\IeC {\^e}n}{72}{subsection.4.19.2}}
\@writefile{toc}{\contentsline {subsubsection}{\numberline {4.19.2.1}load}{72}{subsubsection.4.19.2.1}}
\newlabel{a00019_a9eb91c34a5dc09e9597e2c80c1111759}{{4.19.2.1}{72}{load\relax }{subsubsection.4.19.2.1}{}}
\@writefile{toc}{\contentsline {subsubsection}{\numberline {4.19.2.2}operate}{72}{subsubsection.4.19.2.2}}
\newlabel{a00019_aabd867b83a9e7736d252f4f20e08fa3e}{{4.19.2.2}{72}{operate\relax }{subsubsection.4.19.2.2}{}}
\@writefile{toc}{\contentsline {subsubsection}{\numberline {4.19.2.3}save}{72}{subsubsection.4.19.2.3}}
\newlabel{a00019_aa7971014f2d8312b93ddd5850dcd71f2}{{4.19.2.3}{72}{save\relax }{subsubsection.4.19.2.3}{}}
\@writefile{toc}{\contentsline {subsubsection}{\numberline {4.19.2.4}type}{73}{subsubsection.4.19.2.4}}
\newlabel{a00019_ac07d7b346b204db021d3fcf8914d22bf}{{4.19.2.4}{73}{type\relax }{subsubsection.4.19.2.4}{}}
\@writefile{toc}{\contentsline {section}{\numberline {4.20}Set\discretionary {-}{}{}Render\discretionary {-}{}{}Hint Class Tham chi\IeC {\'\ecircumflex }u}{73}{section.4.20}}
\newlabel{a00020}{{4.20}{73}{Set\-Render\-Hint Class Tham chiếu\relax }{section.4.20}{}}
\newlabel{a00020_a260ff75cbbccc6ed4bbafe929337cdfd}{{4.20}{75}{Các hàm thành viên Public\relax }{section*.75}{}}
\newlabel{a00020_afdda11a1b4a1bb3361157218e7c39ca4}{{4.20}{75}{Các thuộc tính Static Public\relax }{section*.76}{}}
\newlabel{a00020_a61a78675cf89481608902e012b051ac3}{{4.20}{75}{Các thuộc tính Private\relax }{section*.77}{}}
\gdef \LT@xliii {\LT@entry 
    {1}{78.18367pt}\LT@entry 
    {1}{380.5249pt}}
\gdef \LT@xliv {\LT@entry 
    {1}{78.18367pt}\LT@entry 
    {1}{380.5249pt}}
\gdef \LT@xlv {\LT@entry 
    {1}{78.18367pt}\LT@entry 
    {1}{380.5249pt}}
\newlabel{a00020_a2704b12058fcb08539d46d748a69a6b8}{{4.20}{76}{Các thuộc tính Private\relax }{section*.77}{}}
\@writefile{toc}{\contentsline {subsection}{\numberline {4.20.1}M\IeC {\^o} t\IeC {\h a} chi ti\IeC {\'\ecircumflex }t}{76}{subsection.4.20.1}}
\@writefile{toc}{\contentsline {subsection}{\numberline {4.20.2}Th\IeC {\^o}ng tin v\IeC {\`\ecircumflex } h\IeC {\`a}m th\IeC {\`a}nh vi\IeC {\^e}n}{76}{subsection.4.20.2}}
\@writefile{toc}{\contentsline {subsubsection}{\numberline {4.20.2.1}load}{76}{subsubsection.4.20.2.1}}
\newlabel{a00020_af88cc814196622b6c1c8a1d8e4646ee2}{{4.20.2.1}{76}{load\relax }{subsubsection.4.20.2.1}{}}
\@writefile{toc}{\contentsline {subsubsection}{\numberline {4.20.2.2}operate}{76}{subsubsection.4.20.2.2}}
\newlabel{a00020_ae996b635fdf1cedc1342a62cda9aed73}{{4.20.2.2}{76}{operate\relax }{subsubsection.4.20.2.2}{}}
\@writefile{toc}{\contentsline {subsubsection}{\numberline {4.20.2.3}save}{76}{subsubsection.4.20.2.3}}
\newlabel{a00020_a6d1b2c95c52a4da072cb579f6e750739}{{4.20.2.3}{76}{save\relax }{subsubsection.4.20.2.3}{}}
\@writefile{toc}{\contentsline {subsubsection}{\numberline {4.20.2.4}type}{77}{subsubsection.4.20.2.4}}
\newlabel{a00020_adb652cfccfdd0534b7978b2e73b91d21}{{4.20.2.4}{77}{type\relax }{subsubsection.4.20.2.4}{}}
\@writefile{toc}{\contentsline {chapter}{\numberline {5}Th\IeC {\^o}ng tin v\IeC {\`\ecircumflex } File}{79}{chapter.5}}
\@writefile{lof}{\addvspace {10\p@ }}
\@writefile{lot}{\addvspace {10\p@ }}
\@writefile{toc}{\contentsline {section}{\numberline {5.1}src/player.hh File Tham chi\IeC {\'\ecircumflex }u}{79}{section.5.1}}
\newlabel{a00053}{{5.1}{79}{src/player.hh File Tham chiếu\relax }{section.5.1}{}}
\newlabel{a00053_a33fd0a7d1db1b0720d9b1d3e2755cc42}{{5.1}{80}{Typedefs\relax }{section*.79}{}}
\newlabel{a00053_a92cdacc87310ca4fe21f30dea40e97d6}{{5.1}{80}{Typedefs\relax }{section*.79}{}}
\newlabel{a00053_a9dc18b36550983dae513e41eb7a79262}{{5.1}{80}{Typedefs\relax }{section*.79}{}}
\@writefile{toc}{\contentsline {section}{\numberline {5.2}player.\discretionary {-}{}{}hh}{80}{section.5.2}}
\newlabel{a00053}{{5.2}{80}{player.\-hh\relax }{section.5.2}{}}
\@writefile{toc}{\contentsline {part}{Ch\IeC {\h i} s\IeC {\'\ocircumflex }}{83}{section.5.2}}
